{
    "version": "https://jsonfeed.org/version/1",
    "title": "ccnot",
    "description": "",
    "home_page_url": "https://gitlab.com/ccnot/ccnot.gitlab.io",
    "feed_url": "https://gitlab.com/ccnot/ccnot.gitlab.io/feed.json",
    "user_comment": "",
    "author": {
        "name": "cc"
    },
    "items": [
        {
            "id": "https://gitlab.com/ccnot/ccnot.gitlab.io/pime-maksud-hati-ingin-menebang-pohon/",
            "url": "https://gitlab.com/ccnot/ccnot.gitlab.io/pime-maksud-hati-ingin-menebang-pohon/",
            "title": "&quot;PiMe&quot; Maksud Hati Ingin Menebang Pohon",
            "summary": "Meluangkan waktu dipagi hari, buka Play Store disana teringat sebuah game yang masih baru dirilis dan tertulis \"early access\", akhirnya menarik untuk dimainkan, sebenarnya sudah beberapa minggu lalu setelah menjumpai game ini di salah satu iklan Google Ads setelah memainkan online game lainnya yang biasanya beri \"reward\" lebih dengan menonton&hellip;",
            "content_html": "<p class=\"align-left\">Meluangkan waktu dipagi hari, buka <em>Play Store</em> disana teringat sebuah game yang masih baru dirilis dan tertulis \"<em>early access</em>\", akhirnya menarik untuk dimainkan, sebenarnya sudah beberapa minggu lalu setelah menjumpai <em>game</em> ini di salah satu iklan <em>Google Ads</em> setelah memainkan <em>online game</em> lainnya yang biasanya beri <em>\"reward\"</em> lebih dengan menonton iklan dari <em>Google</em>. \"<em>PiMe</em>\" singkat nama yang mudah ingar.</p>\n<p class=\"align-left\">Beberapa hal yang menarik dari pengenalan game ini dari gambar dan text di <em>Play Store</em> adalah tema game 2D yang dirasa lebih ringan dimainkan, lalu dikenalkan fasilitas klasik keseharian yang menggambarkan pemain akan memainkannya dengan tema keseharian seperti memancing, serta berbagai *mini games *yang tersedia didalamnya. \"<em>Multiplayer</em>\" juga menjadi tema utamanya,jadi lebih menarik sebab dapat bermain dengan banyak kalangan dari berbagai penjuru dunia, memang dalam setiap arena permainan bersamanya mungkin dibatasi 15 orang atau bisa lebih.</p>\n<p class=\"align-left\">Pemain ditantang dengan berkompetisi dalam game ini dengan adanya <em>Quest</em> sehari-hari dan <em>Event</em> yang terbatas waktu tertentu. Fasilitas penunjang awal untuk menempa perlengkapan karakter kita didalam game adalah dengan mengoleksi sumber daya alam dari kebun dan laut, Menarik dengan beragam \"<em>skin item</em>\" didalam <em>game</em> dirasa menambah daya tarik untuk memainkannya lebih lama.</p>\n<p class=\"align-left\">Adanya kebun yang belum terjamah didalamnya, mengingatkan akan pembangunan dan dampaknya bagi lingkungan sekitar. Hal umum yang akan dilakukan jika menjumpai tanah yang dimaksudkan untuk perluasan lahan tanam maupun pembangunan adalah dengan membersihkan apa yang tidak dibutuhkan disana dan memanfaatkan berbagai sumber daya alam untuk penunjang perluasan tersebut. Hal demikian mulai mengusik pemikiran, yang mana awalnya hanya ingin menggunakan kapak didalam <em>game</em> untuk menebang pohon disekitar, itu sebabkan berhenti sejenak dan merenung beberapa saat.</p>\n<p class=\"align-left\">Tergambar dalam pikiran akan proses manusia dahulu memanfaatkan sumber daya alam untuk pembangunan. Pernah teringat dari bacaan kisah-kisah terdahulu bahwa manusia biasanya membangun rumah dari batang kayu, dedaunan kering dan kulit binatang, maupun batu pahatan atau dari tanah liat yang disusun, selain itu ada pula yang memanfaatkan dinding keras dari tebing atau bukit untuk dipahat jadi tempat tinggal.</p>\n<p class=\"align-left\">Di situ terasa berat hati jika menyingkirkan pohon untuk penunjang pembangunan maupun perluasan lahan, sebab teringat bahwa pohon itu perlu tumbuh beberapa tahun dan disaat masa pertumbuhannya itu pohon-pohon menebar udara segar yang pernah terdengar menghasilkan gas oksigen di muka bumi ini. Umum sering terdengar bahwa ketersediaan oksigen itu sangat penting bagi pernafasan seluruh manusia di muka bumi ini. Berat hati seharusnya terasa bagi penikmat hidup di muka bumi jika pertumbuhan pohon d pangkas untuk menunjang kemajuan pembangunan.</p>\n<p class=\"align-left\">Dari sana terbentuk nasehat, bisanya lakukan pembangunan tanpa memangkas pertumbuhan pohon dengan memanfaatkan alternatif yang ada. Beberapa hal tergambar dalam pikiran, seperti melakukan pembangunan dengan memanfaatkan sumber daya alam yang tidak menunjang pertumbuhan pohon, selain itu perluasan lahan juga dapat diadaptasikan sehingga pohon sekitar dapat tetap tumbuh seperti dengan memindahkannya maupun menyesuaikan desain lahan yang digunakan dengan pertumbuhan pohon sekitarnya. Hal itu dirasa lebih menguntungkan untuk pembangunan kedepannya tanpa mengurangi nikmatnya bernafas di muka bumi ini. Menarik, pagi ini dapat landasan untuk jadi dasar pemikiran utama dalam berpendapat tentang adaptasi pembangunan untuk pertumbuhan pohon.</p>",
            "author": {
                "name": "cc"
            },
            "tags": [
            ],
            "date_published": "2023-02-13T05:43:55+07:00",
            "date_modified": "2023-02-13T05:43:55+07:00"
        },
        {
            "id": "https://gitlab.com/ccnot/ccnot.gitlab.io/about-author/",
            "url": "https://gitlab.com/ccnot/ccnot.gitlab.io/about-author/",
            "title": "About Author",
            "summary": "I'am as me in the origin.",
            "content_html": "<blockquote>\n<p>I'am as me in the origin.</p>\n</blockquote>",
            "author": {
                "name": "cc"
            },
            "tags": [
                   "more info",
                   "about me"
            ],
            "date_published": "2023-02-12T04:14:46+07:00",
            "date_modified": "2023-02-12T04:14:46+07:00"
        }
    ]
}
